{
  "name": "configuration",
  "datasource": "mongodb",
  "properties": {
    "financingRate": {
      "type": "number",
      "required": true,
      "default": 0
    },
    "hitch": {
      "type": "number",
      "required": true,
      "default": 0
    },
    "maximumPaymentTerms": {
      "type": "number",
      "required": true,
      "default": 0
    }
  },
  "relations": {}
}
